4 Transforming Data | Introduction to Geographic Information Systems
…
First, let’s find out the racial breakdown of stops for each county, using the data in the “subject_race” field of co_traffice_stops_2010.

Below, we take co_traffic_stops_2010 object, declare “county_name” as a grouping variable using group_by(county_name), and then count up the number of stops associated with each racial category within each county using count(subject_race). The dataset thats results from these operations is assigned to a new object named co_county_summary:

# Compute county-level count of traffic stops by race
co_county_summary<-co_traffic_stops_2010 %>% 
                    group_by(county_name) %>% 
                    count(subject_race) 

Let’s print the first few rows from the dataset and observe its structure:

co_county_summary

## # A tibble: 439 × 3
## # Groups:   county_name [65]
##    county_name    subject_race               n
##    <chr>          <chr>                  <int>
##  1 Adams County   asian/pacific islander   582
##  2 Adams County   black                   1208
##  3 Adams County   hispanic                8012
##  4 Adams County   other                     36
##  5 Adams County   unknown                  462
##  6 Adams County   white                  20225
##  7 Adams County   <NA>                    3825
##  8 Alamosa County asian/pacific islander    18
##  9 Alamosa County black                     43
## 10 Alamosa County hispanic                1537
## # … with 429 more rows

4.2 Reshape the data

co_county_summary_wide<-co_county_summary %>% 
                        pivot_wider(names_from=subject_race, values_from=n)

4.3 Calculate total stops for each county in co_county_summary_wide

co_county_summary_wide<-co_county_summary_wide %>% 
                        rowwise() %>% 
                        mutate(total_stops=sum(c_across(where(is.integer)), na.rm=TRUE)) 

co_county_summary_wide

## # A tibble: 65 × 9
## # Rowwise:  county_name
##    county_name       `asian/pacific islander` black hispanic other unknown white  `NA` total_stops
##    <chr>                                <int> <int>    <int> <int>   <int> <int> <int>       <int>
##  1 Adams County                           582  1208     8012    36     462 20225  3825       34350
##  2 Alamosa County                          18    43     1537     9      30  2427   414        4478
##  3 Arapahoe County                        540  1819     1862    12     300 11089  1898       17520
##  4 Archuleta County                        17    28      392    71      41  4125   417        5091
##  5 Baca County                             11    61      288    NA       6   971   174        1511
##  6 Bent County                              8    46      314     1       6  1155   278        1808
##  7 Boulder County                         345   192     1050    10     180  9682  1594       13053
##  8 Broomfield County                       32    22      104     3      18   690   226        1095
##  9 Chaffee County                          43    37      361     9      71  4806  1194        6521
## 10 Cheyenne County                         10    38      147     3       2   821    85        1106
## # … with 55 more rows

4.4 Clean co_county_summary_wide and assign to new object

co_county_black_stops<-co_county_summary_wide %>%
                        select(county_name, black, total_stops) 

co_county_black_stops<-co_county_black_stops %>%
                        rename(black_stops=black)

co_county_black_stops<-co_county_black_stops %>% 
                        filter(county_name!="NA")

co_county_black_stops

## # A tibble: 64 × 3
## # Rowwise:  county_name
##    county_name       black_stops total_stops
##    <chr>                   <int>       <int>
##  1 Adams County             1208       34350
##  2 Alamosa County             43        4478
##  3 Arapahoe County          1819       17520
##  4 Archuleta County           28        5091
##  5 Baca County                61        1511
##  6 Bent County                46        1808
##  7 Boulder County            192       13053
##  8 Broomfield County          22        1095
##  9 Chaffee County             37        6521
## 10 Cheyenne County            38        1106
## # … with 54 more rows
